Lab3/Lab3/code/tb_wave.vcd
$date
	Mon May 20 15:32:02 2019
$end
$version
	Icarus Verilog
$end
$timescale
	1ps
$end
$scope module TestBench $end
$scope module CPU $end
$var wire 32 ! ADD2o [31:0] $end
$var wire 4 " ALUCtrl [3:0] $end
$var wire 3 # ALUOp [2:0] $end
$var wire 32 $ ALUResult [31:0] $end
$var wire 1 % ALUsrc $end
$var wire 32 & ALUsrc2 [31:0] $end
$var wire 1 ' Branch $end
$var wire 1 ( Jr $end
$var wire 32 ) Jtarget [31:0] $end
$var wire 26 * Jtarget26 [25:0] $end
$var wire 28 + Jtarget28 [27:0] $end
$var wire 1 , Jump $end
$var wire 1 - MemRead $end
$var wire 1 . MemWrite $end
$var wire 2 / MemtoReg [1:0] $end
$var wire 5 0 RDadd [4:0] $end
$var wire 5 1 RSadd [4:0] $end
$var wire 32 2 RSdata [31:0] $end
$var wire 5 3 RTadd [4:0] $end
$var wire 32 4 RTdata [31:0] $end
$var wire 32 5 Readdata [31:0] $end
$var wire 2 6 RegDst [1:0] $end
$var wire 1 7 RegWrite $end
$var wire 32 8 Shifto [31:0] $end
$var wire 1 9 bselect $end
$var wire 1 : clk_i $end
$var wire 6 ; defunct [5:0] $end
$var wire 6 < funct [5:0] $end
$var wire 32 = instr [31:0] $end
$var wire 6 > instr_op [5:0] $end
$var wire 5 ? muxRD [4:0] $end
$var wire 32 @ originPC [31:0] $end
$var wire 32 A pc_in [31:0] $end
$var wire 32 B pc_in2 [31:0] $end
$var wire 32 C pc_out [31:0] $end
$var wire 1 D rst_i $end
$var wire 1 E select_shamt $end
$var wire 32 F shamt_output [31:0] $end
$var wire 16 G signi [15:0] $end
$var wire 32 H signo [31:0] $end
$var wire 32 I sum_1 [31:0] $end
$var wire 32 J wb [31:0] $end
$var wire 1 K zero $end
$scope module PC $end
$var wire 1 : clk_i $end
$var wire 32 L pc_in_i [31:0] $end
$var wire 1 D rst_i $end
$var reg 32 M pc_out_o [31:0] $end
$upscope $end
$scope module Adder1 $end
$var wire 32 N src1_i [31:0] $end
$var wire 32 O src2_i [31:0] $end
$var wire 32 P sum_o [31:0] $end
$upscope $end
$scope module IM $end
$var wire 32 Q addr_i [31:0] $end
$var wire 32 R instr_o [31:0] $end
$var integer 32 S i [31:0] $end
$upscope $end
$scope module Mux_Write_Reg $end
$var wire 5 T data0_i [4:0] $end
$var wire 5 U data1_i [4:0] $end
$var wire 5 V data2_i [4:0] $end
$var wire 5 W data3_i [4:0] $end
$var wire 2 X select_i [1:0] $end
$var reg 5 Y data_o [4:0] $end
$upscope $end
$scope module RF $end
$var wire 5 Z RDaddr_i [4:0] $end
$var wire 32 [ RDdata_i [31:0] $end
$var wire 5 \ RSaddr_i [4:0] $end
$var wire 32 ] RSdata_o [31:0] $end
$var wire 5 ^ RTaddr_i [4:0] $end
$var wire 32 _ RTdata_o [31:0] $end
$var wire 1 7 RegWrite_i $end
$var wire 1 : clk_i $end
$var wire 1 D rst_i $end
$upscope $end
$scope module Decoder $end
$var wire 6 ` instr_fun_i [5:0] $end
$var wire 6 a instr_op_i [5:0] $end
$var reg 1 b ALUSrc_o $end
$var reg 3 c ALU_op_o [2:0] $end
$var reg 1 d Branch_o $end
$var reg 1 e Jump_o $end
$var reg 1 f MemRead_o $end
$var reg 1 g MemWrite_o $end
$var reg 2 h MemtoReg_o [1:0] $end
$var reg 2 i RegDst_o [1:0] $end
$var reg 1 j RegWrite_o $end
$upscope $end
$scope module AC $end
$var wire 3 k ALUOp_i [2:0] $end
$var wire 6 l funct_i [5:0] $end
$var reg 4 m ALUCtrl_o [3:0] $end
$var reg 1 n Jr_o $end
$upscope $end
$scope module SE $end
$var wire 16 o data_i [15:0] $end
$var reg 32 p data_o [31:0] $end
$var reg 32 q i [31:0] $end
$upscope $end
$scope module Mux_ALUSrc $end
$var wire 32 r data0_i [31:0] $end
$var wire 32 s data1_i [31:0] $end
$var wire 1 % select_i $end
$var reg 32 t data_o [31:0] $end
$upscope $end
$scope module shamt_control $end
$var wire 32 u data0_i [31:0] $end
$var wire 32 v data1_i [31:0] $end
$var wire 1 E select_i $end
$var reg 32 w data_o [31:0] $end
$upscope $end
$scope module ALU $end
$var wire 4 x ctrl_i [3:0] $end
$var wire 32 y src1_i [31:0] $end
$var wire 32 z src2_i [31:0] $end
$var wire 1 K zero_o $end
$var reg 32 { result_o [31:0] $end
$var reg 16 | temp [15:0] $end
$var reg 5 } temp_2 [4:0] $end
$var reg 32 ~ temp_3 [31:0] $end
$upscope $end
$scope module Adder2 $end
$var wire 32 !" src1_i [31:0] $end
$var wire 32 "" src2_i [31:0] $end
$var wire 32 #" sum_o [31:0] $end
$upscope $end
$scope module Shifter $end
$var wire 32 $" data_i [31:0] $end
$var reg 32 %" data_o [31:0] $end
$var reg 32 &" i [31:0] $end
$upscope $end
$scope module Mux_PC_Source $end
$var wire 32 '" data0_i [31:0] $end
$var wire 32 (" data1_i [31:0] $end
$var wire 1 9 select_i $end
$var reg 32 )" data_o [31:0] $end
$upscope $end
$scope module Shifter2 $end
$var wire 26 *" data_i [25:0] $end
$var reg 28 +" data_o [27:0] $end
$var reg 28 ," i [27:0] $end
$upscope $end
$scope module Mux_PC_Source2 $end
$var wire 32 -" data0_i [31:0] $end
$var wire 32 ." data1_i [31:0] $end
$var wire 1 , select_i $end
$var reg 32 /" data_o [31:0] $end
$upscope $end
$scope module Data_Memory $end
$var wire 1 - MemRead_i $end
$var wire 1 . MemWrite_i $end
$var wire 32 0" addr_i [31:0] $end
$var wire 1 : clk_i $end
$var wire 32 1" data_i [31:0] $end
$var reg 32 2" data_o [31:0] $end
$var integer 32 3" i [31:0] $end
$upscope $end
$scope module WriteBack $end
$var wire 32 4" data0_i [31:0] $end
$var wire 32 5" data1_i [31:0] $end
$var wire 32 6" data2_i [31:0] $end
$var wire 32 7" data3_i [31:0] $end
$var wire 2 8" select_i [1:0] $end
$var reg 32 9" data_o [31:0] $end
$upscope $end
$scope module Mux_PC_Source3 $end
$var wire 32 :" data0_i [31:0] $end
$var wire 32 ;" data1_i [31:0] $end
$var wire 1 ( select_i $end
$var reg 32 <" data_o [31:0] $end
$upscope $end
$upscope $end
$upscope $end
$enddefinitions $end
#0
$dumpvars
bx <"
bx ;"
bx :"
bx 9"
bx 8"
bx 7"
bx 6"
bx 5"
bx 4"
b10000000 3"
bx 2"
bx 1"
bx 0"
bx /"
bx00 ."
bx -"
b11100 ,"
bx00 +"
bx *"
bx )"
bx ("
bx '"
bx &"
bx %"
bx $"
bx #"
bx ""
bx !"
bx ~
bx }
bx |
bx {
bx z
bx y
bx x
bx w
bx v
bx u
bx t
bx s
bx r
b100000 q
bx p
bx o
xn
bx m
bx l
bx k
xj
bx i
bx h
xg
xf
xe
xd
bx c
xb
bx a
bx `
bx _
bx ^
bx ]
bx \
bx [
bx Z
bx Y
bx X
bz W
b11111 V
bx U
bx T
b100000 S
bx R
bx Q
bx P
bx O
b100 N
bx M
bx L
xK
bx J
bx I
bx H
bx G
bx F
xE
0D
bx C
bx B
bx A
bx @
bx ?
bx >
bx =
bx <
bx ;
0:
x9
bx 8
x7
bx 6
bx 5
bx 4
bx 3
bx 2
bx 1
bx 0
bx /
x.
x-
x,
bx00 +
bx *
bx00 )
x(
x'
bx &
x%
bx $
bx #
bx "
bx !
$end
#25000
1K
b0 9"
b0 J
b0 [
b0 ;"
b0 {
b0 $
b0 0"
b0 4"
b100 <"
b100 B
b100 L
b0 w
b0 F
b0 y
b100 /"
b100 A
b100 :"
0E
b100 )"
b100 @
b100 -"
b10001000 !
b10001000 #"
b10001000 ("
b100000 &"
b10000100 %"
b10000100 8
b10000100 ""
09
b10000100 +
b11100 ,"
b10000100 +"
b100001 p
b100001 H
b100001 s
b100001 $"
b100001 6"
b100000 q
0n
0(
b10 m
b10 "
b10 x
b0 t
b0 &
b0 z
b0 Y
b0 0
b0 Z
b0 h
b0 /
b0 8"
0g
0.
0f
0-
0e
0,
0d
0'
b1 i
b1 6
b1 X
1j
17
0b
0%
b10 c
b10 #
b10 k
b10000100 )
b10000100 ."
b100001 ;
b100001 `
b100001 *
b100001 *"
b100001 G
b100001 o
b100001 <
b100001 l
b0 ?
b0 U
b0 4
b0 _
b0 r
b0 1"
b0 3
b0 T
b0 ^
b0 2
b0 ]
b0 u
b0 1
b0 \
b0 >
b0 a
b0 M
b100 I
b100 P
b100 !"
b100 '"
b100 7"
b100001 =
b100001 R
b100001 v
b0 C
b0 O
b0 Q
1:
#50000
0:
1D
#75000
0K
b100 9"
b100 J
b100 [
b100 ;"
b100 {
b100 $
b100 0"
b100 4"
b1000 <"
b1000 B
b1000 L
b10000 8
b10000 ""
b100000 &"
b10000 %"
b100 t
b100 &
b100 z
b1000 /"
b1000 A
b1000 :"
b100000000000000010000 +
b100000000000000010000 )
b100000000000000010000 ."
b11100 ,"
b100000000000000010000 +"
b100 p
b100 H
b100 s
b100 $"
b100 6"
b100000 q
b100 Y
b100 0
b100 Z
b0 i
b0 6
b0 X
1b
1%
b100 c
b100 #
b100 k
b1000 )"
b1000 @
b1000 -"
b100 ;
b100 `
b1000000000000000100 *
b1000000000000000100 *"
b100 G
b100 o
b100 <
b100 l
b100 3
b100 T
b100 ^
b1000 >
b1000 a
b100 M
b11000 !
b11000 #"
b11000 ("
b1000 I
b1000 P
b1000 !"
b1000 '"
b1000 7"
b100000000001000000000000000100 =
b100000000001000000000000000100 R
b100000000001000000000000000100 v
b100 C
b100 O
b100 Q
1:
#100000
0:
#125000
b1 9"
b1 J
b1 [
b1 ;"
b1 {
b1 $
b1 0"
b1 4"
b1100 <"
b1100 B
b1100 L
b100 8
b100 ""
b100000 &"
b100 %"
b1 t
b1 &
b1 z
b1100 /"
b1100 A
b1100 :"
b1001000000000000000100 +
b1001000000000000000100 )
b1001000000000000000100 ."
b11100 ,"
b1001000000000000000100 +"
b1 p
b1 H
b1 s
b1 $"
b1 6"
b100000 q
b1001 Y
b1001 0
b1001 Z
b1100 )"
b1100 @
b1100 -"
b1 ;
b1 `
b10010000000000000001 *
b10010000000000000001 *"
b1 G
b1 o
b1 <
b1 l
b1001 3
b1001 T
b1001 ^
b1000 M
b10000 !
b10000 #"
b10000 ("
b1100 I
b1100 P
b1100 !"
b1100 '"
b1100 7"
b100000000010010000000000000001 =
b100000000010010000000000000001 R
b100000000010010000000000000001 v
b1000 C
b1000 O
b1000 Q
b0 4
b0 _
b0 r
b0 1"
1:
#150000
0:
#175000
b101 {
b101 $
b101 0"
b101 4"
b10100 <"
b10100 B
b10100 L
b10100 8
b10100 ""
b100000 &"
b10100 %"
b101 t
b101 &
b101 z
b10000 9"
b10000 J
b10000 [
b10000 ;"
b10100 /"
b10100 A
b10100 :"
b10100 +
b10100 )
b10100 ."
b11100 ,"
b10100 +"
b101 H
b101 s
b101 $"
b101 6"
b101 p
b100000 q
b11111 Y
b11111 0
b11111 Z
b11 h
b11 /
b11 8"
1e
1,
b10 i
b10 6
b10 X
b10000 )"
b10000 @
b10000 -"
b101 ;
b101 `
b101 *
b101 *"
b101 G
b101 o
b101 <
b101 l
b0 3
b0 T
b0 ^
b11 >
b11 a
b1100 M
b100100 !
b100100 #"
b100100 ("
b10000 I
b10000 P
b10000 !"
b10000 '"
b10000 7"
b1100000000000000000000000101 =
b1100000000000000000000000101 R
b1100000000000000000000000101 v
b1100 C
b1100 O
b1100 Q
b0 4
b0 _
b0 r
b0 1"
1:
#200000
0:
#225000
b11111111111111111111111111010000 8
b11111111111111111111111111010000 ""
b100000 &"
b11111111111111111111111111010000 %"
b11111111111111111111111111110100 t
b11111111111111111111111111110100 &
b11111111111111111111111111110100 z
b1110100 {
b1110100 $
b1110100 0"
b1110100 4"
b11000 <"
b11000 B
b11000 L
b11000 /"
b11000 A
b11000 :"
b1110111101111111111111010000 +
b1110111101111111111111010000 )
b1110111101111111111111010000 ."
b11100 ,"
b1110111101111111111111010000 +"
b11111111111111111111111111110100 p
b11111111111111111111111111110100 H
b11111111111111111111111111110100 s
b11111111111111111111111111110100 $"
b11111111111111111111111111110100 6"
b100000 q
b11101 Y
b11101 0
b11101 Z
b10000000 w
b10000000 F
b10000000 y
b0 h
b0 /
b0 8"
0e
0,
b0 i
b0 6
b0 X
b1110100 9"
b1110100 J
b1110100 [
b1110100 ;"
b11000 )"
b11000 @
b11000 -"
b110100 ;
b110100 `
b11101111011111111111110100 *
b11101111011111111111110100 *"
b1111111111110100 G
b1111111111110100 o
b110100 <
b110100 l
b11111 ?
b11111 U
b10000000 4
b10000000 _
b10000000 r
b10000000 1"
b11101 3
b11101 T
b11101 ^
b10000000 2
b10000000 ]
b10000000 u
b11101 1
b11101 \
b1000 >
b1000 a
b10100 M
b11111111111111111111111111101000 !
b11111111111111111111111111101000 #"
b11111111111111111111111111101000 ("
b11000 I
b11000 P
b11000 !"
b11000 '"
b11000 7"
b100011101111011111111111110100 =
b100011101111011111111111110100 R
b100011101111011111111111110100 v
b10100 C
b10100 O
b10100 Q
1:
#250000
0:
#275000
b11100 <"
b11100 B
b11100 L
b0 8
b0 ""
b100000 &"
b0 %"
b0 t
b0 &
b0 z
b1110100 9"
b1110100 J
b1110100 [
b1110100 ;"
b11100 /"
b11100 A
b11100 :"
b1110111111000000000000000000 +
b1110111111000000000000000000 )
b1110111111000000000000000000 ."
b11100 ,"
b1110111111000000000000000000 +"
b0 H
b0 s
b0 $"
b0 6"
b0 p
b100000 q
b11111 Y
b11111 0
b11111 Z
1g
1.
0j
07
b1110100 {
b1110100 $
b1110100 0"
b1110100 4"
b11100 )"
b11100 @
b11100 -"
b0 ;
b0 `
b11101111110000000000000000 *
b11101111110000000000000000 *"
b0 G
b0 o
b0 <
b0 l
b0 ?
b0 U
b11111 3
b11111 T
b11111 ^
b101011 >
b101011 a
b1110100 w
b1110100 F
b1110100 y
b11000 M
b11100 !
b11100 #"
b11100 ("
b11100 I
b11100 P
b11100 !"
b11100 '"
b11100 7"
b10101111101111110000000000000000 =
b10101111101111110000000000000000 R
b10101111101111110000000000000000 v
b11000 C
b11000 O
b11000 Q
b1110100 2
b1110100 ]
b1110100 u
b10000 4
b10000 _
b10000 r
b10000 1"
1:
#300000
0:
#325000
b1111000 9"
b1111000 J
b1111000 [
b1111000 ;"
b1111000 {
b1111000 $
b1111000 0"
b1111000 4"
b100000 <"
b100000 B
b100000 L
b10000 8
b10000 ""
b100000 &"
b10000 %"
b100 t
b100 &
b100 z
b100000 /"
b100000 A
b100000 :"
b1110110000000000000000010000 +
b1110110000000000000000010000 )
b1110110000000000000000010000 ."
b11100 ,"
b1110110000000000000000010000 +"
b100 H
b100 s
b100 $"
b100 6"
b100 p
b100000 q
b10000 Y
b10000 0
b10000 Z
b100000 )"
b100000 @
b100000 -"
b100 ;
b100 `
b11101100000000000000000100 *
b11101100000000000000000100 *"
b100 G
b100 o
b100 <
b100 l
b0 4
b0 _
b0 r
b0 1"
b10000 3
b10000 T
b10000 ^
b11100 M
b110000 !
b110000 #"
b110000 ("
b100000 I
b100000 P
b100000 !"
b100000 '"
b100000 7"
b10101111101100000000000000000100 =
b10101111101100000000000000000100 R
b10101111101100000000000000000100 v
b11100 C
b11100 O
b11100 Q
1:
#350000
0:
#375000
b1111100 9"
b1111100 J
b1111100 [
b1111100 ;"
b1111100 {
b1111100 $
b1111100 0"
b1111100 4"
b100100 <"
b100100 B
b100100 L
b100000 8
b100000 ""
b100000 &"
b100000 %"
b1000 t
b1000 &
b1000 z
b100100 /"
b100100 A
b100100 :"
b1110110001000000000000100000 +
b1110110001000000000000100000 )
b1110110001000000000000100000 ."
b11100 ,"
b1110110001000000000000100000 +"
b1000 H
b1000 s
b1000 $"
b1000 6"
b1000 p
b100000 q
b10001 Y
b10001 0
b10001 Z
b100100 )"
b100100 @
b100100 -"
b1000 ;
b1000 `
b11101100010000000000001000 *
b11101100010000000000001000 *"
b1000 G
b1000 o
b1000 <
b1000 l
b10001 3
b10001 T
b10001 ^
b100000 M
b1000100 !
b1000100 #"
b1000100 ("
b100100 I
b100100 P
b100100 !"
b100100 '"
b100100 7"
b10101111101100010000000000001000 =
b10101111101100010000000000001000 R
b10101111101100010000000000001000 v
b100000 C
b100000 O
b100000 Q
1:
#400000
0:
#425000
b101000 <"
b101000 B
b101000 L
b100 9"
b100 J
b100 [
b100 ;"
b11111111111111100000000010000100 8
b11111111111111100000000010000100 ""
b100000 &"
b11111111111111100000000010000100 %"
b100 {
b100 $
b100 0"
b100 4"
b0 t
b0 &
b0 z
b101000 /"
b101000 A
b101000 :"
b10000000100000000010000100 +
b10000000100000000010000100 )
b10000000100000000010000100 ."
b11100 ,"
b10000000100000000010000100 +"
b11111111111111111000000000100001 p
b11111111111111111000000000100001 H
b11111111111111111000000000100001 s
b11111111111111111000000000100001 $"
b11111111111111111000000000100001 6"
b100000 q
b10000 Y
b10000 0
b10000 Z
b100 w
b100 F
b100 y
0g
0.
b1 i
b1 6
b1 X
1j
17
0b
0%
b10 c
b10 #
b10 k
b101000 )"
b101000 @
b101000 -"
b100001 ;
b100001 `
b100000001000000000100001 *
b100000001000000000100001 *"
b1000000000100001 G
b1000000000100001 o
b100001 <
b100001 l
b10000 ?
b10000 U
b0 3
b0 T
b0 ^
b100 2
b100 ]
b100 u
b100 1
b100 \
b0 >
b0 a
b100100 M
b11111111111111100000000010101100 !
b11111111111111100000000010101100 #"
b11111111111111100000000010101100 ("
b101000 I
b101000 P
b101000 !"
b101000 '"
b101000 7"
b100000001000000000100001 =
b100000001000000000100001 R
b100000001000000000100001 v
b100100 C
b100100 O
b100100 Q
1:
#450000
0:
#475000
b101100 <"
b101100 B
b101100 L
b110000 8
b110000 ""
b100000 &"
b110000 %"
b101100 /"
b101100 A
b101100 :"
b1000000000000000000000110000 +
b1000000000000000000000110000 )
b1000000000000000000000110000 ."
b11100 ,"
b1000000000000000000000110000 +"
b1100 p
b1100 H
b1100 s
b1100 $"
b1100 6"
b100000 q
b110 m
b110 "
b110 x
b0 Y
b0 0
b0 Z
1d
1'
0j
07
b1 c
b1 #
b1 k
b101100 )"
b101100 @
b101100 -"
b1100 ;
b1100 `
b10000000000000000000001100 *
b10000000000000000000001100 *"
b1100 G
b1100 o
b1100 <
b1100 l
b0 ?
b0 U
b10000 1
b10000 \
b100 >
b100 a
b101000 M
b1011100 !
b1011100 #"
b1011100 ("
b101100 I
b101100 P
b101100 !"
b101100 '"
b101100 7"
b10010000000000000000000001100 =
b10010000000000000000000001100 R
b10010000000000000000000001100 v
b101000 C
b101000 O
b101000 Q
1:
#500000
0:
#525000
b110000 <"
b110000 B
b110000 L
b11 9"
b11 J
b11 [
b11 ;"
b101100 8
b101100 ""
b100000 &"
b101100 %"
b11 {
b11 $
b11 0"
b11 4"
b110000 /"
b110000 A
b110000 :"
b1000001001000000000000101100 +
b1000001001000000000000101100 )
b1000001001000000000000101100 ."
b11100 ,"
b1000001001000000000000101100 +"
b1011 p
b1011 H
b1011 s
b1011 $"
b1011 6"
b100000 q
b1 t
b1 &
b1 z
b110000 )"
b110000 @
b110000 -"
b1011 ;
b1011 `
b10000010010000000000001011 *
b10000010010000000000001011 *"
b1011 G
b1011 o
b1011 <
b1011 l
b1 4
b1 _
b1 r
b1 1"
b1001 3
b1001 T
b1001 ^
b101100 M
b1011100 !
b1011100 #"
b1011100 ("
b110000 I
b110000 P
b110000 !"
b110000 '"
b110000 7"
b10010000010010000000000001011 =
b10010000010010000000000001011 R
b10010000010010000000000001011 v
b101100 C
b101100 O
b101100 Q
1:
#550000
0:
#575000
b110100 <"
b110100 B
b110100 L
b11 9"
b11 J
b11 [
b11 ;"
b11111111111111111111111111111100 8
b11111111111111111111111111111100 ""
b100000 &"
b11111111111111111111111111111100 %"
b11 {
b11 $
b11 0"
b11 4"
b110100 /"
b110100 A
b110100 :"
b1000000100111111111111111100 +
b1000000100111111111111111100 )
b1000000100111111111111111100 ."
b11100 ,"
b1000000100111111111111111100 +"
b11111111111111111111111111111111 H
b11111111111111111111111111111111 s
b11111111111111111111111111111111 $"
b11111111111111111111111111111111 6"
b11111111111111111111111111111111 p
b100000 q
b10 m
b10 "
b10 x
b11111111111111111111111111111111 t
b11111111111111111111111111111111 &
b11111111111111111111111111111111 z
b100 Y
b100 0
b100 Z
0d
0'
b0 i
b0 6
b0 X
1j
17
1b
1%
b100 c
b100 #
b100 k
b110100 )"
b110100 @
b110100 -"
b111111 ;
b111111 `
b10000001001111111111111111 *
b10000001001111111111111111 *"
b1111111111111111 G
b1111111111111111 o
b111111 <
b111111 l
b11111 ?
b11111 U
b100 4
b100 _
b100 r
b100 1"
b100 3
b100 T
b100 ^
b1000 >
b1000 a
b110000 M
b110000 !
b110000 #"
b110000 ("
b110100 I
b110100 P
b110100 !"
b110100 '"
b110100 7"
b100010000001001111111111111111 =
b100010000001001111111111111111 R
b100010000001001111111111111111 v
b110000 C
b110000 O
b110000 Q
1:
#600000
0:
#625000
b10100 <"
b10100 B
b10100 L
b10100 8
b10100 ""
b100000 &"
b10100 %"
b101 t
b101 &
b101 z
b101 {
b101 $
b101 0"
b101 4"
b111000 9"
b111000 J
b111000 [
b111000 ;"
b10100 /"
b10100 A
b10100 :"
b10100 +
b10100 )
b10100 ."
b11100 ,"
b10100 +"
b101 H
b101 s
b101 $"
b101 6"
b101 p
b100000 q
b11111 Y
b11111 0
b11111 Z
b0 w
b0 F
b0 y
b11 h
b11 /
b11 8"
1e
1,
b10 i
b10 6
b10 X
b111000 )"
b111000 @
b111000 -"
b101 ;
b101 `
b101 *
b101 *"
b101 G
b101 o
b101 <
b101 l
b0 ?
b0 U
b0 3
b0 T
b0 ^
b0 2
b0 ]
b0 u
b0 1
b0 \
b11 >
b11 a
b110100 M
b1001100 !
b1001100 #"
b1001100 ("
b111000 I
b111000 P
b111000 !"
b111000 '"
b111000 7"
b1100000000000000000000000101 =
b1100000000000000000000000101 R
b1100000000000000000000000101 v
b110100 C
b110100 O
b110100 Q
b0 4
b0 _
b0 r
b0 1"
1:
#650000
0:
#675000
b11111111111111111111111111010000 8
b11111111111111111111111111010000 ""
b100000 &"
b11111111111111111111111111010000 %"
b11111111111111111111111111110100 t
b11111111111111111111111111110100 &
b11111111111111111111111111110100 z
b1101000 {
b1101000 $
b1101000 0"
b1101000 4"
b11000 <"
b11000 B
b11000 L
b11000 /"
b11000 A
b11000 :"
b1110111101111111111111010000 +
b1110111101111111111111010000 )
b1110111101111111111111010000 ."
b11100 ,"
b1110111101111111111111010000 +"
b11111111111111111111111111110100 p
b11111111111111111111111111110100 H
b11111111111111111111111111110100 s
b11111111111111111111111111110100 $"
b11111111111111111111111111110100 6"
b100000 q
b11101 Y
b11101 0
b11101 Z
b1110100 w
b1110100 F
b1110100 y
b0 h
b0 /
b0 8"
0e
0,
b0 i
b0 6
b0 X
b1101000 9"
b1101000 J
b1101000 [
b1101000 ;"
b11000 )"
b11000 @
b11000 -"
b110100 ;
b110100 `
b11101111011111111111110100 *
b11101111011111111111110100 *"
b1111111111110100 G
b1111111111110100 o
b110100 <
b110100 l
b11111 ?
b11111 U
b1110100 4
b1110100 _
b1110100 r
b1110100 1"
b11101 3
b11101 T
b11101 ^
b1110100 2
b1110100 ]
b1110100 u
b11101 1
b11101 \
b1000 >
b1000 a
b10100 M
b11111111111111111111111111101000 !
b11111111111111111111111111101000 #"
b11111111111111111111111111101000 ("
b11000 I
b11000 P
b11000 !"
b11000 '"
b11000 7"
b100011101111011111111111110100 =
b100011101111011111111111110100 R
b100011101111011111111111110100 v
b10100 C
b10100 O
b10100 Q
1:
#700000
0:
#725000
b11100 <"
b11100 B
b11100 L
b0 8
b0 ""
b100000 &"
b0 %"
b0 t
b0 &
b0 z
b1101000 9"
b1101000 J
b1101000 [
b1101000 ;"
b11100 /"
b11100 A
b11100 :"
b1110111111000000000000000000 +
b1110111111000000000000000000 )
b1110111111000000000000000000 ."
b11100 ,"
b1110111111000000000000000000 +"
b0 H
b0 s
b0 $"
b0 6"
b0 p
b100000 q
b11111 Y
b11111 0
b11111 Z
1g
1.
0j
07
b1101000 {
b1101000 $
b1101000 0"
b1101000 4"
b11100 )"
b11100 @
b11100 -"
b0 ;
b0 `
b11101111110000000000000000 *
b11101111110000000000000000 *"
b0 G
b0 o
b0 <
b0 l
b0 ?
b0 U
b11111 3
b11111 T
b11111 ^
b101011 >
b101011 a
b1101000 w
b1101000 F
b1101000 y
b11000 M
b11100 !
b11100 #"
b11100 ("
b11100 I
b11100 P
b11100 !"
b11100 '"
b11100 7"
b10101111101111110000000000000000 =
b10101111101111110000000000000000 R
b10101111101111110000000000000000 v
b11000 C
b11000 O
b11000 Q
b1101000 2
b1101000 ]
b1101000 u
b111000 4
b111000 _
b111000 r
b111000 1"
1:
#750000
0:
#775000
b1101100 9"
b1101100 J
b1101100 [
b1101100 ;"
b1101100 {
b1101100 $
b1101100 0"
b1101100 4"
b100000 <"
b100000 B
b100000 L
b10000 8
b10000 ""
b100000 &"
b10000 %"
b100 t
b100 &
b100 z
b100000 /"
b100000 A
b100000 :"
b1110110000000000000000010000 +
b1110110000000000000000010000 )
b1110110000000000000000010000 ."
b11100 ,"
b1110110000000000000000010000 +"
b100 H
b100 s
b100 $"
b100 6"
b100 p
b100000 q
b10000 Y
b10000 0
b10000 Z
b100000 )"
b100000 @
b100000 -"
b100 ;
b100 `
b11101100000000000000000100 *
b11101100000000000000000100 *"
b100 G
b100 o
b100 <
b100 l
b100 4
b100 _
b100 r
b100 1"
b10000 3
b10000 T
b10000 ^
b11100 M
b110000 !
b110000 #"
b110000 ("
b100000 I
b100000 P
b100000 !"
b100000 '"
b100000 7"
b10101111101100000000000000000100 =
b10101111101100000000000000000100 R
b10101111101100000000000000000100 v
b11100 C
b11100 O
b11100 Q
1:
#800000
0:
#825000
b1110000 9"
b1110000 J
b1110000 [
b1110000 ;"
b1110000 {
b1110000 $
b1110000 0"
b1110000 4"
b100100 <"
b100100 B
b100100 L
b100000 8
b100000 ""
b100000 &"
b100000 %"
b1000 t
b1000 &
b1000 z
b100100 /"
b100100 A
b100100 :"
b1110110001000000000000100000 +
b1110110001000000000000100000 )
b1110110001000000000000100000 ."
b11100 ,"
b1110110001000000000000100000 +"
b1000 H
b1000 s
b1000 $"
b1000 6"
b1000 p
b100000 q
b10001 Y
b10001 0
b10001 Z
b100100 )"
b100100 @
b100100 -"
b1000 ;
b1000 `
b11101100010000000000001000 *
b11101100010000000000001000 *"
b1000 G
b1000 o
b1000 <
b1000 l
b0 4
b0 _
b0 r
b0 1"
b10001 3
b10001 T
b10001 ^
b100000 M
b1000100 !
b1000100 #"
b1000100 ("
b100100 I
b100100 P
b100100 !"
b100100 '"
b100100 7"
b10101111101100010000000000001000 =
b10101111101100010000000000001000 R
b10101111101100010000000000001000 v
b100000 C
b100000 O
b100000 Q
1:
#850000
0:
#875000
b101000 <"
b101000 B
b101000 L
b11 9"
b11 J
b11 [
b11 ;"
b11111111111111100000000010000100 8
b11111111111111100000000010000100 ""
b100000 &"
b11111111111111100000000010000100 %"
b11 {
b11 $
b11 0"
b11 4"
b0 t
b0 &
b0 z
b101000 /"
b101000 A
b101000 :"
b10000000100000000010000100 +
b10000000100000000010000100 )
b10000000100000000010000100 ."
b11100 ,"
b10000000100000000010000100 +"
b11111111111111111000000000100001 p
b11111111111111111000000000100001 H
b11111111111111111000000000100001 s
b11111111111111111000000000100001 $"
b11111111111111111000000000100001 6"
b100000 q
b10000 Y
b10000 0
b10000 Z
b11 w
b11 F
b11 y
0g
0.
b1 i
b1 6
b1 X
1j
17
0b
0%
b10 c
b10 #
b10 k
b101000 )"
b101000 @
b101000 -"
b100001 ;
b100001 `
b100000001000000000100001 *
b100000001000000000100001 *"
b1000000000100001 G
b1000000000100001 o
b100001 <
b100001 l
b10000 ?
b10000 U
b0 3
b0 T
b0 ^
b11 2
b11 ]
b11 u
b100 1
b100 \
b0 >
b0 a
b100100 M
b11111111111111100000000010101100 !
b11111111111111100000000010101100 #"
b11111111111111100000000010101100 ("
b101000 I
b101000 P
b101000 !"
b101000 '"
b101000 7"
b100000001000000000100001 =
b100000001000000000100001 R
b100000001000000000100001 v
b100100 C
b100100 O
b100100 Q
1:
#900000
0:
#925000
b101100 <"
b101100 B
b101100 L
b110000 8
b110000 ""
b100000 &"
b110000 %"
b101100 /"
b101100 A
b101100 :"
b1000000000000000000000110000 +
b1000000000000000000000110000 )
b1000000000000000000000110000 ."
b11100 ,"
b1000000000000000000000110000 +"
b1100 p
b1100 H
b1100 s
b1100 $"
b1100 6"
b100000 q
b110 m
b110 "
b110 x
b0 Y
b0 0
b0 Z
1d
1'
0j
07
b1 c
b1 #
b1 k
b101100 )"
b101100 @
b101100 -"
b1100 ;
b1100 `
b10000000000000000000001100 *
b10000000000000000000001100 *"
b1100 G
b1100 o
b1100 <
b1100 l
b0 ?
b0 U
b10000 1
b10000 \
b100 >
b100 a
b101000 M
b1011100 !
b1011100 #"
b1011100 ("
b101100 I
b101100 P
b101100 !"
b101100 '"
b101100 7"
b10010000000000000000000001100 =
b10010000000000000000000001100 R
b10010000000000000000000001100 v
b101000 C
b101000 O
b101000 Q
1:
#950000
0:
