Lab3/Lab3/test/0616223_0616059/tb_wave.vcd
$date
	Mon May 20 21:30:01 2019
$end
$version
	Icarus Verilog
$end
$timescale
	1ps
$end
$scope module TestBench $end
$scope module CPU $end
$var wire 32 ! ADD2o [31:0] $end
$var wire 4 " ALUCtrl [3:0] $end
$var wire 3 # ALUOp [2:0] $end
$var wire 32 $ ALUResult [31:0] $end
$var wire 1 % ALUsrc $end
$var wire 32 & ALUsrc2 [31:0] $end
$var wire 1 ' Branch $end
$var wire 1 ( Jr $end
$var wire 32 ) Jtarget [31:0] $end
$var wire 26 * Jtarget26 [25:0] $end
$var wire 28 + Jtarget28 [27:0] $end
$var wire 1 , Jump $end
$var wire 1 - MemRead $end
$var wire 1 . MemWrite $end
$var wire 2 / MemtoReg [1:0] $end
$var wire 5 0 RDadd [4:0] $end
$var wire 5 1 RSadd [4:0] $end
$var wire 32 2 RSdata [31:0] $end
$var wire 5 3 RTadd [4:0] $end
$var wire 32 4 RTdata [31:0] $end
$var wire 32 5 Readdata [31:0] $end
$var wire 2 6 RegDst [1:0] $end
$var wire 1 7 RegWrite $end
$var wire 32 8 Shifto [31:0] $end
$var wire 1 9 bselect $end
$var wire 1 : clk_i $end
$var wire 6 ; defunct [5:0] $end
$var wire 6 < funct [5:0] $end
$var wire 32 = instr [31:0] $end
$var wire 6 > instr_op [5:0] $end
$var wire 5 ? muxRD [4:0] $end
$var wire 32 @ originPC [31:0] $end
$var wire 32 A pc_in [31:0] $end
$var wire 32 B pc_in2 [31:0] $end
$var wire 32 C pc_out [31:0] $end
$var wire 1 D rst_i $end
$var wire 1 E select_shamt $end
$var wire 32 F shamt_output [31:0] $end
$var wire 16 G signi [15:0] $end
$var wire 32 H signo [31:0] $end
$var wire 32 I sum_1 [31:0] $end
$var wire 32 J wb [31:0] $end
$var wire 1 K zero $end
$scope module PC $end
$var wire 1 : clk_i $end
$var wire 32 L pc_in_i [31:0] $end
$var wire 1 D rst_i $end
$var reg 32 M pc_out_o [31:0] $end
$upscope $end
$scope module Adder1 $end
$var wire 32 N src1_i [31:0] $end
$var wire 32 O src2_i [31:0] $end
$var wire 32 P sum_o [31:0] $end
$upscope $end
$scope module IM $end
$var wire 32 Q addr_i [31:0] $end
$var wire 32 R instr_o [31:0] $end
$var integer 32 S i [31:0] $end
$upscope $end
$scope module Mux_Write_Reg $end
$var wire 5 T data0_i [4:0] $end
$var wire 5 U data1_i [4:0] $end
$var wire 5 V data2_i [4:0] $end
$var wire 5 W data3_i [4:0] $end
$var wire 2 X select_i [1:0] $end
$var reg 5 Y data_o [4:0] $end
$upscope $end
$scope module RF $end
$var wire 5 Z RDaddr_i [4:0] $end
$var wire 32 [ RDdata_i [31:0] $end
$var wire 5 \ RSaddr_i [4:0] $end
$var wire 32 ] RSdata_o [31:0] $end
$var wire 5 ^ RTaddr_i [4:0] $end
$var wire 32 _ RTdata_o [31:0] $end
$var wire 1 7 RegWrite_i $end
$var wire 1 : clk_i $end
$var wire 1 D rst_i $end
$upscope $end
$scope module Decoder $end
$var wire 6 ` instr_fun_i [5:0] $end
$var wire 6 a instr_op_i [5:0] $end
$var reg 1 b ALUSrc_o $end
$var reg 3 c ALU_op_o [2:0] $end
$var reg 1 d Branch_o $end
$var reg 1 e Jump_o $end
$var reg 1 f MemRead_o $end
$var reg 1 g MemWrite_o $end
$var reg 2 h MemtoReg_o [1:0] $end
$var reg 2 i RegDst_o [1:0] $end
$var reg 1 j RegWrite_o $end
$upscope $end
$scope module AC $end
$var wire 3 k ALUOp_i [2:0] $end
$var wire 6 l funct_i [5:0] $end
$var reg 4 m ALUCtrl_o [3:0] $end
$var reg 1 n Jr_o $end
$upscope $end
$scope module SE $end
$var wire 16 o data_i [15:0] $end
$var reg 32 p data_o [31:0] $end
$var reg 32 q i [31:0] $end
$upscope $end
$scope module Mux_ALUSrc $end
$var wire 32 r data0_i [31:0] $end
$var wire 32 s data1_i [31:0] $end
$var wire 1 % select_i $end
$var reg 32 t data_o [31:0] $end
$upscope $end
$scope module shamt_control $end
$var wire 32 u data0_i [31:0] $end
$var wire 32 v data1_i [31:0] $end
$var wire 1 E select_i $end
$var reg 32 w data_o [31:0] $end
$upscope $end
$scope module ALU $end
$var wire 4 x ctrl_i [3:0] $end
$var wire 32 y src1_i [31:0] $end
$var wire 32 z src2_i [31:0] $end
$var wire 1 K zero_o $end
$var reg 32 { result_o [31:0] $end
$var reg 16 | temp [15:0] $end
$var reg 5 } temp_2 [4:0] $end
$var reg 32 ~ temp_3 [31:0] $end
$upscope $end
$scope module Adder2 $end
$var wire 32 !" src1_i [31:0] $end
$var wire 32 "" src2_i [31:0] $end
$var wire 32 #" sum_o [31:0] $end
$upscope $end
$scope module Shifter $end
$var wire 32 $" data_i [31:0] $end
$var reg 32 %" data_o [31:0] $end
$var reg 32 &" i [31:0] $end
$upscope $end
$scope module Mux_PC_Source $end
$var wire 32 '" data0_i [31:0] $end
$var wire 32 (" data1_i [31:0] $end
$var wire 1 9 select_i $end
$var reg 32 )" data_o [31:0] $end
$upscope $end
$scope module Shifter2 $end
$var wire 26 *" data_i [25:0] $end
$var reg 28 +" data_o [27:0] $end
$var reg 28 ," i [27:0] $end
$upscope $end
$scope module Mux_PC_Source2 $end
$var wire 32 -" data0_i [31:0] $end
$var wire 32 ." data1_i [31:0] $end
$var wire 1 , select_i $end
$var reg 32 /" data_o [31:0] $end
$upscope $end
$scope module Data_Memory $end
$var wire 1 - MemRead_i $end
$var wire 1 . MemWrite_i $end
$var wire 32 0" addr_i [31:0] $end
$var wire 1 : clk_i $end
$var wire 32 1" data_i [31:0] $end
$var reg 32 2" data_o [31:0] $end
$var integer 32 3" i [31:0] $end
$upscope $end
$scope module WriteBack $end
$var wire 32 4" data0_i [31:0] $end
$var wire 32 5" data1_i [31:0] $end
$var wire 32 6" data2_i [31:0] $end
$var wire 32 7" data3_i [31:0] $end
$var wire 2 8" select_i [1:0] $end
$var reg 32 9" data_o [31:0] $end
$upscope $end
$scope module Mux_PC_Source3 $end
$var wire 32 :" data0_i [31:0] $end
$var wire 32 ;" data1_i [31:0] $end
$var wire 1 ( select_i $end
$var reg 32 <" data_o [31:0] $end
$upscope $end
$upscope $end
$upscope $end
$enddefinitions $end
#0
$dumpvars
bx <"
bx ;"
bx :"
bx 9"
bx 8"
bx 7"
bx 6"
bx 5"
bx 4"
b10000000 3"
bx 2"
bx 1"
bx 0"
bx /"
bx00 ."
bx -"
b11100 ,"
bx00 +"
bx *"
bx )"
bx ("
bx '"
bx &"
bx %"
bx $"
bx #"
bx ""
bx !"
bx ~
bx }
bx |
bx {
bx z
bx y
bx x
bx w
bx v
bx u
bx t
bx s
bx r
b100000 q
bx p
bx o
xn
bx m
bx l
bx k
xj
bx i
bx h
xg
xf
xe
xd
bx c
xb
bx a
bx `
bx _
bx ^
bx ]
bx \
bx [
bx Z
bx Y
bx X
bz W
b11111 V
bx U
bx T
b100000 S
bx R
bx Q
bx P
bx O
b100 N
bx M
bx L
xK
bx J
bx I
bx H
bx G
bx F
xE
0D
bx C
bx B
bx A
bx @
bx ?
bx >
bx =
bx <
bx ;
0:
x9
bx 8
x7
bx 6
bx 5
bx 4
bx 3
bx 2
bx 1
bx 0
bx /
x.
x-
x,
bx00 +
bx *
bx00 )
x(
x'
bx &
x%
bx $
bx #
bx "
bx !
$end
#25000
1K
b0 9"
b0 J
b0 [
b0 ;"
b0 {
b0 $
b0 0"
b0 4"
b100 <"
b100 B
b100 L
b0 w
b0 F
b0 y
b100 /"
b100 A
b100 :"
0E
b100 )"
b100 @
b100 -"
b100 !
b100 #"
b100 ("
b100000 &"
b0 %"
b0 8
b0 ""
09
b0 +
b11100 ,"
b0 +"
b0 p
b0 H
b0 s
b0 $"
b0 6"
b100000 q
0n
0(
b10 m
b10 "
b10 x
b0 t
b0 &
b0 z
b0 Y
b0 0
b0 Z
b0 h
b0 /
b0 8"
0g
0.
0f
0-
0e
0,
0d
0'
b1 i
b1 6
b1 X
1j
17
0b
0%
b10 c
b10 #
b10 k
b0 )
b0 ."
b0 ;
b0 `
b0 *
b0 *"
b0 G
b0 o
b0 <
b0 l
b0 ?
b0 U
b0 4
b0 _
b0 r
b0 1"
b0 3
b0 T
b0 ^
b0 2
b0 ]
b0 u
b0 1
b0 \
b0 >
b0 a
b0 M
b100 I
b100 P
b100 !"
b100 '"
b100 7"
b0 =
b0 R
b0 v
b0 C
b0 O
b0 Q
1:
#50000
0:
1D
#75000
b1000 <"
b1000 B
b1000 L
b1000 /"
b1000 A
b1000 :"
b1000 )"
b1000 @
b1000 -"
b100 M
b1000 !
b1000 #"
b1000 ("
b1000 I
b1000 P
b1000 !"
b1000 '"
b1000 7"
b100 C
b100 O
b100 Q
1:
#100000
0:
#125000
b1100 <"
b1100 B
b1100 L
b1100 /"
b1100 A
b1100 :"
b1100 )"
b1100 @
b1100 -"
b1000 M
b1100 !
b1100 #"
b1100 ("
b1100 I
b1100 P
b1100 !"
b1100 '"
b1100 7"
b1000 C
b1000 O
b1000 Q
1:
#150000
0:
#175000
b10000 <"
b10000 B
b10000 L
b10000 /"
b10000 A
b10000 :"
b10000 )"
b10000 @
b10000 -"
b1100 M
b10000 !
b10000 #"
b10000 ("
b10000 I
b10000 P
b10000 !"
b10000 '"
b10000 7"
b1100 C
b1100 O
b1100 Q
1:
#200000
0:
#225000
b10100 <"
b10100 B
b10100 L
b10100 /"
b10100 A
b10100 :"
b10100 )"
b10100 @
b10100 -"
b10000 M
b10100 !
b10100 #"
b10100 ("
b10100 I
b10100 P
b10100 !"
b10100 '"
b10100 7"
b10000 C
b10000 O
b10000 Q
1:
#250000
0:
#275000
b11000 <"
b11000 B
b11000 L
b11000 /"
b11000 A
b11000 :"
b11000 )"
b11000 @
b11000 -"
b10100 M
b11000 !
b11000 #"
b11000 ("
b11000 I
b11000 P
b11000 !"
b11000 '"
b11000 7"
b10100 C
b10100 O
b10100 Q
1:
#300000
0:
#325000
b11100 <"
b11100 B
b11100 L
b11100 /"
b11100 A
b11100 :"
b11100 )"
b11100 @
b11100 -"
b11000 M
b11100 !
b11100 #"
b11100 ("
b11100 I
b11100 P
b11100 !"
b11100 '"
b11100 7"
b11000 C
b11000 O
b11000 Q
1:
#350000
0:
#375000
b100000 <"
b100000 B
b100000 L
b100000 /"
b100000 A
b100000 :"
b100000 )"
b100000 @
b100000 -"
b11100 M
b100000 !
b100000 #"
b100000 ("
b100000 I
b100000 P
b100000 !"
b100000 '"
b100000 7"
b11100 C
b11100 O
b11100 Q
1:
#400000
0:
#425000
b100100 <"
b100100 B
b100100 L
b100100 /"
b100100 A
b100100 :"
b100100 )"
b100100 @
b100100 -"
b100000 M
b100100 !
b100100 #"
b100100 ("
b100100 I
b100100 P
b100100 !"
b100100 '"
b100100 7"
b100000 C
b100000 O
b100000 Q
1:
#450000
0:
#475000
b101000 <"
b101000 B
b101000 L
b101000 /"
b101000 A
b101000 :"
b101000 )"
b101000 @
b101000 -"
b100100 M
b101000 !
b101000 #"
b101000 ("
b101000 I
b101000 P
b101000 !"
b101000 '"
b101000 7"
b100100 C
b100100 O
b100100 Q
1:
#500000
0:
#525000
b101100 <"
b101100 B
b101100 L
b101100 /"
b101100 A
b101100 :"
b101100 )"
b101100 @
b101100 -"
b101000 M
b101100 !
b101100 #"
b101100 ("
b101100 I
b101100 P
b101100 !"
b101100 '"
b101100 7"
b101000 C
b101000 O
b101000 Q
1:
#550000
0:
#575000
b110000 <"
b110000 B
b110000 L
b110000 /"
b110000 A
b110000 :"
b110000 )"
b110000 @
b110000 -"
b101100 M
b110000 !
b110000 #"
b110000 ("
b110000 I
b110000 P
b110000 !"
b110000 '"
b110000 7"
b101100 C
b101100 O
b101100 Q
1:
#600000
0:
#625000
b110100 <"
b110100 B
b110100 L
b110100 /"
b110100 A
b110100 :"
b110100 )"
b110100 @
b110100 -"
b110000 M
b110100 !
b110100 #"
b110100 ("
b110100 I
b110100 P
b110100 !"
b110100 '"
b110100 7"
b110000 C
b110000 O
b110000 Q
1:
#650000
0:
#675000
b111000 <"
b111000 B
b111000 L
b111000 /"
b111000 A
b111000 :"
b111000 )"
b111000 @
b111000 -"
b110100 M
b111000 !
b111000 #"
b111000 ("
b111000 I
b111000 P
b111000 !"
b111000 '"
b111000 7"
b110100 C
b110100 O
b110100 Q
1:
#700000
0:
#725000
b111100 <"
b111100 B
b111100 L
b111100 /"
b111100 A
b111100 :"
b111100 )"
b111100 @
b111100 -"
b111000 M
b111100 !
b111100 #"
b111100 ("
b111100 I
b111100 P
b111100 !"
b111100 '"
b111100 7"
b111000 C
b111000 O
b111000 Q
1:
#750000
0:
#775000
b1000000 <"
b1000000 B
b1000000 L
b1000000 /"
b1000000 A
b1000000 :"
b1000000 )"
b1000000 @
b1000000 -"
b111100 M
b1000000 !
b1000000 #"
b1000000 ("
b1000000 I
b1000000 P
b1000000 !"
b1000000 '"
b1000000 7"
b111100 C
b111100 O
b111100 Q
1:
#800000
0:
#825000
b1000100 <"
b1000100 B
b1000100 L
b1000100 /"
b1000100 A
b1000100 :"
b1000100 )"
b1000100 @
b1000100 -"
b1000000 M
b1000100 !
b1000100 #"
b1000100 ("
b1000100 I
b1000100 P
b1000100 !"
b1000100 '"
b1000100 7"
b1000000 C
b1000000 O
b1000000 Q
1:
#850000
0:
#875000
b1001000 <"
b1001000 B
b1001000 L
b1001000 /"
b1001000 A
b1001000 :"
b1001000 )"
b1001000 @
b1001000 -"
b1000100 M
b1001000 !
b1001000 #"
b1001000 ("
b1001000 I
b1001000 P
b1001000 !"
b1001000 '"
b1001000 7"
b1000100 C
b1000100 O
b1000100 Q
1:
#900000
0:
#925000
b1001100 <"
b1001100 B
b1001100 L
b1001100 /"
b1001100 A
b1001100 :"
b1001100 )"
b1001100 @
b1001100 -"
b1001000 M
b1001100 !
b1001100 #"
b1001100 ("
b1001100 I
b1001100 P
b1001100 !"
b1001100 '"
b1001100 7"
b1001000 C
b1001000 O
b1001000 Q
1:
#950000
0:
#975000
b1010000 <"
b1010000 B
b1010000 L
b1010000 /"
b1010000 A
b1010000 :"
b1010000 )"
b1010000 @
b1010000 -"
b1001100 M
b1010000 !
b1010000 #"
b1010000 ("
b1010000 I
b1010000 P
b1010000 !"
b1010000 '"
b1010000 7"
b1001100 C
b1001100 O
b1001100 Q
1:
#1000000
0:
#1025000
b1010100 <"
b1010100 B
b1010100 L
b1010100 /"
b1010100 A
b1010100 :"
b1010100 )"
b1010100 @
b1010100 -"
b1010000 M
b1010100 !
b1010100 #"
b1010100 ("
b1010100 I
b1010100 P
b1010100 !"
b1010100 '"
b1010100 7"
b1010000 C
b1010000 O
b1010000 Q
1:
#1050000
0:
#1075000
b1011000 <"
b1011000 B
b1011000 L
b1011000 /"
b1011000 A
b1011000 :"
b1011000 )"
b1011000 @
b1011000 -"
b1010100 M
b1011000 !
b1011000 #"
b1011000 ("
b1011000 I
b1011000 P
b1011000 !"
b1011000 '"
b1011000 7"
b1010100 C
b1010100 O
b1010100 Q
1:
#1100000
0:
#1125000
b1011100 <"
b1011100 B
b1011100 L
b1011100 /"
b1011100 A
b1011100 :"
b1011100 )"
b1011100 @
b1011100 -"
b1011000 M
b1011100 !
b1011100 #"
b1011100 ("
b1011100 I
b1011100 P
b1011100 !"
b1011100 '"
b1011100 7"
b1011000 C
b1011000 O
b1011000 Q
1:
#1150000
0:
#1175000
b1100000 <"
b1100000 B
b1100000 L
b1100000 /"
b1100000 A
b1100000 :"
b1100000 )"
b1100000 @
b1100000 -"
b1011100 M
b1100000 !
b1100000 #"
b1100000 ("
b1100000 I
b1100000 P
b1100000 !"
b1100000 '"
b1100000 7"
b1011100 C
b1011100 O
b1011100 Q
1:
#1200000
0:
#1225000
b1100100 <"
b1100100 B
b1100100 L
b1100100 /"
b1100100 A
b1100100 :"
b1100100 )"
b1100100 @
b1100100 -"
b1100000 M
b1100100 !
b1100100 #"
b1100100 ("
b1100100 I
b1100100 P
b1100100 !"
b1100100 '"
b1100100 7"
b1100000 C
b1100000 O
b1100000 Q
1:
#1250000
0:
#1275000
b1101000 <"
b1101000 B
b1101000 L
b1101000 /"
b1101000 A
b1101000 :"
b1101000 )"
b1101000 @
b1101000 -"
b1100100 M
b1101000 !
b1101000 #"
b1101000 ("
b1101000 I
b1101000 P
b1101000 !"
b1101000 '"
b1101000 7"
b1100100 C
b1100100 O
b1100100 Q
1:
#1300000
0:
#1325000
b1101100 <"
b1101100 B
b1101100 L
b1101100 /"
b1101100 A
b1101100 :"
b1101100 )"
b1101100 @
b1101100 -"
b1101000 M
b1101100 !
b1101100 #"
b1101100 ("
b1101100 I
b1101100 P
b1101100 !"
b1101100 '"
b1101100 7"
b1101000 C
b1101000 O
b1101000 Q
1:
#1350000
0:
#1375000
b1110000 <"
b1110000 B
b1110000 L
b1110000 /"
b1110000 A
b1110000 :"
b1110000 )"
b1110000 @
b1110000 -"
b1101100 M
b1110000 !
b1110000 #"
b1110000 ("
b1110000 I
b1110000 P
b1110000 !"
b1110000 '"
b1110000 7"
b1101100 C
b1101100 O
b1101100 Q
1:
#1400000
0:
#1425000
b1110100 <"
b1110100 B
b1110100 L
b1110100 /"
b1110100 A
b1110100 :"
b1110100 )"
b1110100 @
b1110100 -"
b1110000 M
b1110100 !
b1110100 #"
b1110100 ("
b1110100 I
b1110100 P
b1110100 !"
b1110100 '"
b1110100 7"
b1110000 C
b1110000 O
b1110000 Q
1:
#1450000
0:
#1475000
b1111000 <"
b1111000 B
b1111000 L
b1111000 /"
b1111000 A
b1111000 :"
b1111000 )"
b1111000 @
b1111000 -"
b1110100 M
b1111000 !
b1111000 #"
b1111000 ("
b1111000 I
b1111000 P
b1111000 !"
b1111000 '"
b1111000 7"
b1110100 C
b1110100 O
b1110100 Q
1:
#1500000
0:
#1525000
b1111100 <"
b1111100 B
b1111100 L
b1111100 /"
b1111100 A
b1111100 :"
b1111100 )"
b1111100 @
b1111100 -"
b1111000 M
b1111100 !
b1111100 #"
b1111100 ("
b1111100 I
b1111100 P
b1111100 !"
b1111100 '"
b1111100 7"
b1111000 C
b1111000 O
b1111000 Q
1:
#1550000
0:
#1575000
b10000000 <"
b10000000 B
b10000000 L
b10000000 /"
b10000000 A
b10000000 :"
b10000000 )"
b10000000 @
b10000000 -"
b1111100 M
b10000000 !
b10000000 #"
b10000000 ("
b10000000 I
b10000000 P
b10000000 !"
b10000000 '"
b10000000 7"
b1111100 C
b1111100 O
b1111100 Q
1:
#1600000
0:
#1625000
xE
xK
b10000100 <"
b10000100 B
b10000100 L
bx 9"
bx J
bx [
bx ;"
bx00 8
bx00 ""
b100000 &"
bx00 %"
bx {
bx $
bx 0"
bx 4"
b10000100 /"
b10000100 A
b10000100 :"
bx00 +
b0xxxxxxxxxxxxxxxxxxxxxxxxxx00 )
b0xxxxxxxxxxxxxxxxxxxxxxxxxx00 ."
b11100 ,"
bx00 +"
bx p
bx H
bx s
bx $"
bx 6"
b100000 q
bx t
bx &
bx z
bx Y
bx 0
bx Z
bx w
bx F
bx y
b10000100 )"
b10000100 @
b10000100 -"
bx ;
bx `
bx *
bx *"
bx G
bx o
bx <
bx l
bx ?
bx U
bx 4
bx _
bx r
bx 1"
bx 3
bx T
bx ^
bx 2
bx ]
bx u
bx 1
bx \
bx >
bx a
b10000000 M
bx !
bx #"
bx ("
b10000100 I
b10000100 P
b10000100 !"
b10000100 '"
b10000100 7"
bx =
bx R
bx v
b10000000 C
b10000000 O
b10000000 Q
1:
#1650000
0:
#1675000
b10001000 <"
b10001000 B
b10001000 L
b10001000 /"
b10001000 A
b10001000 :"
b10001000 )"
b10001000 @
b10001000 -"
b10000100 M
b10001000 I
b10001000 P
b10001000 !"
b10001000 '"
b10001000 7"
b10000100 C
b10000100 O
b10000100 Q
1:
#1700000
0:
#1725000
b10001100 <"
b10001100 B
b10001100 L
b10001100 /"
b10001100 A
b10001100 :"
b10001100 )"
b10001100 @
b10001100 -"
b10001000 M
b10001100 I
b10001100 P
b10001100 !"
b10001100 '"
b10001100 7"
b10001000 C
b10001000 O
b10001000 Q
1:
#1750000
0:
#1775000
b10010000 <"
b10010000 B
b10010000 L
b10010000 /"
b10010000 A
b10010000 :"
b10010000 )"
b10010000 @
b10010000 -"
b10001100 M
b10010000 I
b10010000 P
b10010000 !"
b10010000 '"
b10010000 7"
b10001100 C
b10001100 O
b10001100 Q
1:
#1800000
0:
#1825000
b10010100 <"
b10010100 B
b10010100 L
b10010100 /"
b10010100 A
b10010100 :"
b10010100 )"
b10010100 @
b10010100 -"
b10010000 M
b10010100 I
b10010100 P
b10010100 !"
b10010100 '"
b10010100 7"
b10010000 C
b10010000 O
b10010000 Q
1:
#1850000
0:
#1875000
b10011000 <"
b10011000 B
b10011000 L
b10011000 /"
b10011000 A
b10011000 :"
b10011000 )"
b10011000 @
b10011000 -"
b10010100 M
b10011000 I
b10011000 P
b10011000 !"
b10011000 '"
b10011000 7"
b10010100 C
b10010100 O
b10010100 Q
1:
#1900000
0:
#1925000
b10011100 <"
b10011100 B
b10011100 L
b10011100 /"
b10011100 A
b10011100 :"
b10011100 )"
b10011100 @
b10011100 -"
b10011000 M
b10011100 I
b10011100 P
b10011100 !"
b10011100 '"
b10011100 7"
b10011000 C
b10011000 O
b10011000 Q
1:
#1950000
0:
#1975000
b10100000 <"
b10100000 B
b10100000 L
b10100000 /"
b10100000 A
b10100000 :"
b10100000 )"
b10100000 @
b10100000 -"
b10011100 M
b10100000 I
b10100000 P
b10100000 !"
b10100000 '"
b10100000 7"
b10011100 C
b10011100 O
b10011100 Q
1:
#2000000
0:
#2025000
b10100100 <"
b10100100 B
b10100100 L
b10100100 /"
b10100100 A
b10100100 :"
b10100100 )"
b10100100 @
b10100100 -"
b10100000 M
b10100100 I
b10100100 P
b10100100 !"
b10100100 '"
b10100100 7"
b10100000 C
b10100000 O
b10100000 Q
1:
#2050000
0:
#2075000
b10101000 <"
b10101000 B
b10101000 L
b10101000 /"
b10101000 A
b10101000 :"
b10101000 )"
b10101000 @
b10101000 -"
b10100100 M
b10101000 I
b10101000 P
b10101000 !"
b10101000 '"
b10101000 7"
b10100100 C
b10100100 O
b10100100 Q
1:
#2100000
0:
#2125000
b10101100 <"
b10101100 B
b10101100 L
b10101100 /"
b10101100 A
b10101100 :"
b10101100 )"
b10101100 @
b10101100 -"
b10101000 M
b10101100 I
b10101100 P
b10101100 !"
b10101100 '"
b10101100 7"
b10101000 C
b10101000 O
b10101000 Q
1:
#2150000
0:
#2175000
b10110000 <"
b10110000 B
b10110000 L
b10110000 /"
b10110000 A
b10110000 :"
b10110000 )"
b10110000 @
b10110000 -"
b10101100 M
b10110000 I
b10110000 P
b10110000 !"
b10110000 '"
b10110000 7"
b10101100 C
b10101100 O
b10101100 Q
1:
#2200000
0:
#2225000
b10110100 <"
b10110100 B
b10110100 L
b10110100 /"
b10110100 A
b10110100 :"
b10110100 )"
b10110100 @
b10110100 -"
b10110000 M
b10110100 I
b10110100 P
b10110100 !"
b10110100 '"
b10110100 7"
b10110000 C
b10110000 O
b10110000 Q
1:
#2250000
0:
#2275000
b10111000 <"
b10111000 B
b10111000 L
b10111000 /"
b10111000 A
b10111000 :"
b10111000 )"
b10111000 @
b10111000 -"
b10110100 M
b10111000 I
b10111000 P
b10111000 !"
b10111000 '"
b10111000 7"
b10110100 C
b10110100 O
b10110100 Q
1:
#2300000
0:
#2325000
b10111100 <"
b10111100 B
b10111100 L
b10111100 /"
b10111100 A
b10111100 :"
b10111100 )"
b10111100 @
b10111100 -"
b10111000 M
b10111100 I
b10111100 P
b10111100 !"
b10111100 '"
b10111100 7"
b10111000 C
b10111000 O
b10111000 Q
1:
#2350000
0:
#2375000
b11000000 <"
b11000000 B
b11000000 L
b11000000 /"
b11000000 A
b11000000 :"
b11000000 )"
b11000000 @
b11000000 -"
b10111100 M
b11000000 I
b11000000 P
b11000000 !"
b11000000 '"
b11000000 7"
b10111100 C
b10111100 O
b10111100 Q
1:
#2400000
0:
#2425000
b11000100 <"
b11000100 B
b11000100 L
b11000100 /"
b11000100 A
b11000100 :"
b11000100 )"
b11000100 @
b11000100 -"
b11000000 M
b11000100 I
b11000100 P
b11000100 !"
b11000100 '"
b11000100 7"
b11000000 C
b11000000 O
b11000000 Q
1:
#2450000
0:
#2475000
b11001000 <"
b11001000 B
b11001000 L
b11001000 /"
b11001000 A
b11001000 :"
b11001000 )"
b11001000 @
b11001000 -"
b11000100 M
b11001000 I
b11001000 P
b11001000 !"
b11001000 '"
b11001000 7"
b11000100 C
b11000100 O
b11000100 Q
1:
#2500000
0:
#2525000
b11001100 <"
b11001100 B
b11001100 L
b11001100 /"
b11001100 A
b11001100 :"
b11001100 )"
b11001100 @
b11001100 -"
b11001000 M
b11001100 I
b11001100 P
b11001100 !"
b11001100 '"
b11001100 7"
b11001000 C
b11001000 O
b11001000 Q
1:
#2550000
0:
#2575000
b11010000 <"
b11010000 B
b11010000 L
b11010000 /"
b11010000 A
b11010000 :"
b11010000 )"
b11010000 @
b11010000 -"
b11001100 M
b11010000 I
b11010000 P
b11010000 !"
b11010000 '"
b11010000 7"
b11001100 C
b11001100 O
b11001100 Q
1:
#2600000
0:
#2625000
b11010100 <"
b11010100 B
b11010100 L
b11010100 /"
b11010100 A
b11010100 :"
b11010100 )"
b11010100 @
b11010100 -"
b11010000 M
b11010100 I
b11010100 P
b11010100 !"
b11010100 '"
b11010100 7"
b11010000 C
b11010000 O
b11010000 Q
1:
#2650000
0:
#2675000
b11011000 <"
b11011000 B
b11011000 L
b11011000 /"
b11011000 A
b11011000 :"
b11011000 )"
b11011000 @
b11011000 -"
b11010100 M
b11011000 I
b11011000 P
b11011000 !"
b11011000 '"
b11011000 7"
b11010100 C
b11010100 O
b11010100 Q
1:
#2700000
0:
#2725000
b11011100 <"
b11011100 B
b11011100 L
b11011100 /"
b11011100 A
b11011100 :"
b11011100 )"
b11011100 @
b11011100 -"
b11011000 M
b11011100 I
b11011100 P
b11011100 !"
b11011100 '"
b11011100 7"
b11011000 C
b11011000 O
b11011000 Q
1:
#2750000
0:
#2775000
b11100000 <"
b11100000 B
b11100000 L
b11100000 /"
b11100000 A
b11100000 :"
b11100000 )"
b11100000 @
b11100000 -"
b11011100 M
b11100000 I
b11100000 P
b11100000 !"
b11100000 '"
b11100000 7"
b11011100 C
b11011100 O
b11011100 Q
1:
#2800000
0:
#2825000
b11100100 <"
b11100100 B
b11100100 L
b11100100 /"
b11100100 A
b11100100 :"
b11100100 )"
b11100100 @
b11100100 -"
b11100000 M
b11100100 I
b11100100 P
b11100100 !"
b11100100 '"
b11100100 7"
b11100000 C
b11100000 O
b11100000 Q
1:
#2850000
0:
#2875000
b11101000 <"
b11101000 B
b11101000 L
b11101000 /"
b11101000 A
b11101000 :"
b11101000 )"
b11101000 @
b11101000 -"
b11100100 M
b11101000 I
b11101000 P
b11101000 !"
b11101000 '"
b11101000 7"
b11100100 C
b11100100 O
b11100100 Q
1:
#2900000
0:
#2925000
b11101100 <"
b11101100 B
b11101100 L
b11101100 /"
b11101100 A
b11101100 :"
b11101100 )"
b11101100 @
b11101100 -"
b11101000 M
b11101100 I
b11101100 P
b11101100 !"
b11101100 '"
b11101100 7"
b11101000 C
b11101000 O
b11101000 Q
1:
#2950000
0:
#2975000
b11110000 <"
b11110000 B
b11110000 L
b11110000 /"
b11110000 A
b11110000 :"
b11110000 )"
b11110000 @
b11110000 -"
b11101100 M
b11110000 I
b11110000 P
b11110000 !"
b11110000 '"
b11110000 7"
b11101100 C
b11101100 O
b11101100 Q
1:
#3000000
0:
#3025000
b11110100 <"
b11110100 B
b11110100 L
b11110100 /"
b11110100 A
b11110100 :"
b11110100 )"
b11110100 @
b11110100 -"
b11110000 M
b11110100 I
b11110100 P
b11110100 !"
b11110100 '"
b11110100 7"
b11110000 C
b11110000 O
b11110000 Q
1:
#3050000
0:
#3075000
b11111000 <"
b11111000 B
b11111000 L
b11111000 /"
b11111000 A
b11111000 :"
b11111000 )"
b11111000 @
b11111000 -"
b11110100 M
b11111000 I
b11111000 P
b11111000 !"
b11111000 '"
b11111000 7"
b11110100 C
b11110100 O
b11110100 Q
1:
#3100000
0:
#3125000
b11111100 <"
b11111100 B
b11111100 L
b11111100 /"
b11111100 A
b11111100 :"
b11111100 )"
b11111100 @
b11111100 -"
b11111000 M
b11111100 I
b11111100 P
b11111100 !"
b11111100 '"
b11111100 7"
b11111000 C
b11111000 O
b11111000 Q
1:
#3150000
0:
#3175000
b100000000 <"
b100000000 B
b100000000 L
b100000000 /"
b100000000 A
b100000000 :"
b100000000 )"
b100000000 @
b100000000 -"
b11111100 M
b100000000 I
b100000000 P
b100000000 !"
b100000000 '"
b100000000 7"
b11111100 C
b11111100 O
b11111100 Q
1:
#3200000
0:
#3225000
b100000100 <"
b100000100 B
b100000100 L
b100000100 /"
b100000100 A
b100000100 :"
b100000100 )"
b100000100 @
b100000100 -"
b100000000 M
b100000100 I
b100000100 P
b100000100 !"
b100000100 '"
b100000100 7"
b100000000 C
b100000000 O
b100000000 Q
1:
#3250000
0:
#3275000
b100001000 <"
b100001000 B
b100001000 L
b100001000 /"
b100001000 A
b100001000 :"
b100001000 )"
b100001000 @
b100001000 -"
b100000100 M
b100001000 I
b100001000 P
b100001000 !"
b100001000 '"
b100001000 7"
b100000100 C
b100000100 O
b100000100 Q
1:
#3300000
0:
#3325000
b100001100 <"
b100001100 B
b100001100 L
b100001100 /"
b100001100 A
b100001100 :"
b100001100 )"
b100001100 @
b100001100 -"
b100001000 M
b100001100 I
b100001100 P
b100001100 !"
b100001100 '"
b100001100 7"
b100001000 C
b100001000 O
b100001000 Q
1:
#3350000
0:
